{
  "meta": 
  {
    "number": "",
    "description": "",
    "datasheet_url": "",
    "digikey_number": "",
    "octopart_number": "",
    "svg_width": 50,
    "svg_height": 12
  },
  "pins":
  {
  "1":
    {	
      "layout": 
      {
	"pad": "pin", 
	"location": [-1.27, 0]
      }
    },
  "2":
    {
      "layout": 
      {
	"pad": "pin", 
	"location": [1.27, 0]
      }
    }
  },
  "layout":
  {
    "silkscreen":
    {
      "outline":
      {
        "top":
	[
	  {
	    "type": "rect",
            "width": 5.74,
            "height": 3,
	    "offset": [0, 0],
            "radii": {"tl": 0.5, "tr": 0.5, "bl": 0, "br": 0.5}
	  }
	]
      },
      "refdef":
      {
        "top":
        {
          "designator": "J*",
          "location": [0, 2.5]
        }
      } 
    },
    "assembly":
    {
      "outline":
      {
        "top":
	[
	  {
	    "type": "rect",
            "width": 4.83,
            "height": 2.5,
	    "offset": [0, 0]
	  }
	]        
      },
      "refdef":
      {
        "top":
        {
          "designator": "J*",
          "location": [0, 0]
        }
      }
    }
  },
  "pads":
  {
    "pin":
    {
      "origin": [0, 0],
      "shapes":
      {
        "top":
        [
          {
            "type": "circle",
            "outline": 0,
            "diameter": 1.5,
            "offset": [0, 0] 
          }
        ],
        "bottom":
        [
          {
            "type": "circle",
            "outline": 0,
            "diameter": 1.5,
            "offset": [0, 0] 
          }
        ]
      },
      "drills":
      [
        {
          "diameter": 1.1,
          "offset": [0, 0],
          "show_diameter": "yes"
        }
      ]
    }
  }
}
