{
"meta": 
  {
    "number": "",
    "description": "1608 metric / 0603 Imperial generic footprint",
    "datasheet_url": "",
    "digikey_number": "",
    "octopart_number": "",
    "svg_width": 4,
    "svg_height": 2.2
  },
"pins":
  {
  "1":
    {	
      "layout": 
      {
        "pad": "five", 
        "location": [0, 0],
        "rotation": 0
      }
    },
  "2":
    {	
      "layout": 
      {
        "pad": "one", 
        "location": [4.7, 0],
        "rotation": 0
      }
    },
  "3":
    {	
      "layout": 
      {
        "pad": "two_plus_right", 
        "location": [1.85, 2],
        "rotation": 0
      }
    },
  "4":
    {	
      "layout": 
      {
        "pad": "two_plus_left", 
        "location": [-1.85, 2],
        "rotation": 0
      }
    }
  },
  "layout":
  {
    "silkscreen":
    {
      "outline":
      {
        "top":
        [
	  { 
            "type": "rect",
            "width": 0.2,
            "height": 1.2,
	    "offset": [3.7, 0],
            "radii": {"tl": 0.05, "tr": 0.05, "bl": 0.05, "br": 0.05}
	  },
	  { 
            "type": "path",
            "value": "m 4.155075,-0.204509 c 0.091112,-0.0708743 -0.068831,-0.48332063 0.05014,-0.436765 0.097967,-0.003855 0.1738176,0.04926 0.2956506,0.148408 0.7061682,0.640395 0.7913962,0.283277 -0.2732922,1.129814 -0.1334392,0.05812 -0.073441,-0.08442 -0.056081,-0.194271 0.004,-0.117064 0.082753,-0.23768303 0.019309,-0.28248734 C 4.0828621,0.12127559 3.9580704,0.157429 3.8418974,0.161899 3.7042614,0.161237 3.601675,0.16709559 3.464074,0.16279559 c -0.08699,5.89e-4 -0.08057,-0.38108959 0.00268,-0.37269759 0.2281971,0.0468587 0.4590279,0.0248456 0.6883212,0.005393 z m -7.9760877,-0.0085 c -0.2552777,0 -0.5833635,0.08629 -0.7954957,-0.0054 -0.091314,-0.07012 0.032338,-0.37105519 -0.052839,-0.45294419 -0.09527,-0.05509 -0.2664599,-0.0365738 -0.2929537,0.0702062 -0.073955,0.428693 -0.037433,1.12894947 -0.010248,1.18707347 0.018705,0.12114917 0.3279016,0.1448181 0.3450226,-0.0492854 -0.00404,-0.117064 -0.061182,-0.272739 0.021141,-0.366082 0.083672,-0.06588 0.1868889,-0.02703 0.3030628,-0.02256 0.1376352,-6.61e-4 0.3373318,-0.008297 0.4749332,-0.0125966 0.1016117,-0.00185 0.1022649,-0.35099623 0.00738,-0.34841141 z",
	    "offset": [0.2, 2]
	  }
        ]
      },
      "refdef":
      {
        "top":
        {
          "designator": "?*",
          "location": [-1,1.2]
        }
      }
    },
    "assembly":
    {
      "outline":
      {
        "top":
        [
          {
	    "type":"rect",
	    "width":2.55,
	    "height":1.4,
            "offset":[0,0]
          }
        ]
      },
      "refdef":
      {
        "top":
        {
          "designator": "?*",
          "location": [0,0]
        }
      }
    }
  },
  "pads":
  {
    "one":
    {
      "origin": [0, 0],
      "shapes":
      {
        "top":
        [
          {
            "type": "rect",
            "outline": 0,
            "width": 1.35,
            "height": 1.35,
            "offset": [0, 0],
            "radii": {"tl": 0.1, "tr": 0.1, "bl": 0.1, "br": 0.5}
          }
        ]
      }
    },
    "two_plus_right":
    {
      "origin": [0, 0],
      "shapes":
      {
	"top":
	[
	  {
	    "type": "rect",
	    "outline": 0,
	    "width": 3.05,
	    "height": 1.35,
	    "offset": [0, 0],
            "radii": {"tl": 0.1, "tr": 0.5, "bl": 0.1, "br": 0.1}
	  }
	]
      }
    },
    "two_plus_left":
    {
      "origin": [0, 0],
      "shapes":
      {
	"top":
	[
	  {
	    "type": "rect",
	    "outline": 0,
	    "width": 3.05,
	    "height": 1.35,
	    "offset": [0, 0],
            "radii": {"tl": 0.5, "tr": 0.1, "bl": 0.1, "br": 0.1}
	  }
	]
      }
    },
    "five":
    {
      "origin": [0, 0],
      "shapes":
      {
	"top":
	[
	  {
	    "type": "rect",
	    "outline": 0,
	    "width": 6.75,
	    "height": 1.35,
	    "offset": [0, 0],
            "radii": {"tl": 0.1, "tr": 0.1, "bl": 0.5, "br": 0.1}
	  }
	]
      }
    }
  }
}
