{
  "meta": 
  {
    "number": "",
    "description": "",
    "datasheet_url": "",
    "digikey_number": "",
    "octopart_number": "",
    "svg_width": 50,
    "svg_height": 12
  },
  "pins":
  {
  "1":
    {	
      "layout": 
      {
	"pad": "smt_pad_1", 
	"location": [-0.95, -1.3]
      }
    },
  "2":
    {
      "layout": 
      {
	"pad": "smt_pad", 
	"location": [0, -1.3]
      }
    },
  "3":
    {
      "layout": 
      {
	"pad": "smt_pad", 
	"location": [0.95, -1.3]
      }
    },
  "4":
    {
      "layout": 
      {
	"pad": "smt_pad", 
	"location": [0.95, 1.3]
      }
    },
  "5":
    {	
      "layout": 
      {
	"pad": "smt_pad", 
	"location": [-0.95, 1.3]
      }
    }
  },
  "layout":
  {
    "silkscreen":
    {
      "outline":
      {
        "top":
	[
	  {
	    "type": "path",
            "value": "m -1.45,-0.7 h -0.4 v 2.6 h 0.4 m 2.9,0 h 0.4 v -2.6 h -0.4"            
	  }
	]        
      },
      "refdef":
      {
        "top":
        {
          "designator": "J*",
          "location": [0, 2.7]
        }
      }
    },
    "assembly":
    {
      "outline":
      {
        "top":
	[
	  {
	    "type": "rect",
            "width": 2.9,
            "height": 1.6,
	    "offset": [0, 0]
	  }
	]        
      },
      "refdef":
      {
        "top":
        {
          "designator": "J*",
          "location": [0, 0]
        }
      }
    }
  },
  "pads":
  {
    "smt_pad":
    {
      "origin": [0, 0],
      "shapes":
      {
        "top":
        [
          {
            "type": "rect",
            "width": 0.65,
            "height": 1.2
          }
        ]
      }
    },
    "smt_pad_1":
    {
      "origin": [0, 0],
      "shapes":
      {
        "top":
        [
          {
            "type": "rect",
            "width": 0.65,
            "height": 1.2,
            "radii": {"tl": 0, "tr": 0, "bl": 0.20, "br": 0.20}
          }
        ]
      }
    }
  }
}
