{ 
  "meta":
  {
    "unit_length_si": "mm",
    "unit_length_name": "Millimetres",
    "font": "UbuntuMono-R-webfont",
    "assembly_font": "UbuntuMono-R-webfont",
    "silkscreen_font": "UbuntuMono-R-webfont",
    "board_name": "oshwart",
    "board_revision": "A",
    "layout_style": "default"
  },
  "files":
  {
    "routing_svg": "oshwart.svg",
    "routing_data": "oshwart_routing.json"
  },
  "soldermask":
  {
    "pad_scale_factor": 1.1,
    "pad_buffer": 0.1
  },
  "gerber":
  {
    "digits": 6,
    "decimals" : 6
  },
  "layer_index":
  {
    "location": [22,-20],
    "font": "Overlock-Regular-OTF-webfont",
    "scale": 0.0012
  },
  "drill_index": 
  {
    "location": [22,-47],
    "font": "Overlock-Regular-OTF-webfont",
    "scale": 0.0012
  },
  "vias":
  {
    "default_via": "VIA"
  },
  "distances":
  {
    "buffer_from_pour_to":
    {
      "pad": 0.25,
      "drill": 0.25,
      "route": 0.25,
      "board_outline": 0.4
    }
  },
  "documentation":
  {
    "design_information":
    {
      "title": "Design information:",
      "location": [22,35],
      "font": "Overlock-Regular-OTF-webfont",
      "title_scale": 0.0018,
      "scale": 0.0012,
      "text_lines":
      [
        {"Board name:": "'oshwart'"},
        {"Revision:": "A"},
        {"Description:": "OSHW artsy token"},
        {"License": "Apache Version 2.0"}, 
        {"Company:": "Boldport Limited"},
        {"Designer:": "saar drimer"},
        {"Email:": "saardrimer@gmail.com"}
      ]
    },
    "manufacturing_information":
    {
      "title": "Manufacturing detail:",
      "location": [22, 14],
      "font": "Overlock-Regular-OTF-webfont",
      "title_scale": 0.0018,
      "scale": 0.0012,
      "text_lines":
      [
        {"Unit of length:": "Millimetre (mm)"},
        {"Number of layers:": "2 ('top', 'bottom')"}, 
        {"Thickness:": "1.6 mm"},
        {"Material:": "FR4, 1 oz / 35/35 um copper"},
        {"Silkscreen:": "top, bottom: white"},
        {"Soldermask:": "top, bottom: purple"},
        {"Surface finish:": "hot air leveling or equivalent"}
      ]
    },
    "PCBmodE_details":
    {
      "title": "",
      "location": [22, -8],
      "font": "Overlock-Regular-OTF-webfont",
      "title_scale": 0.0020,
      "scale": 0.0009,
      "text_lines":
      [
        {"This open source PCB design was created using 'PCBmodE',": ""},
        {"an open source software": ""},
        {"http://bitbucket.org/boldport/pcbmode": ""}, 
        {"http://boldport.blogspot.com": ""}, 
        {"http://www.boldport.com": "" }
      ]
    }
  },
  "physical":
  {
    "stackup":
    [
      "top",
      "bottom"
    ]
  },
  "board_outline":
  {
    "shape":
    {
      "type": "rect",
      "width": 16,
      "height": 16,
      "radii": {"tl": 1.5, "tr": 1, "bl": 0.1, "br": 0.5}
    },
    "measurements":
    {
      "font": "UbuntuMono-R-webfont",
      "scale": 0.0009
    }
  },
  "components":
  {
    "top":
    {
      "H1":
      {
        "footprint": "DRILL_3MM_SOLDERMASK",
        "location": [-6.15, 6.15],
        "rotation": 0
      },
      "H2":
      {
        "footprint": "DRILL_2MM_SOLDERMASK",
        "location": [6.65, 6.65],
        "rotation": 0
      },
      "H3":
      {
        "footprint": "DRILL_1MM_SOLDERMASK",
        "location": [7.25, -7.25],
        "rotation": 0
      }
    },
    "bottom":
    {
    }
  },
  "drills":
  {
  },
  "additional_shapes":
  {
    "silkscreen":
    {
      "top":
      [
        {
          "type": "text",
          "value": "boldport.com",
          "font": "Snickles-webfont",
          "style": "fill",
          "scale": 0.0012,
          "location": [-4.56, -7.85]
        },
        {
          "type": "path",
          "value": "m 1.6721045,-1.0252911 c 0.1999608,0.5349103 0.1691497,1.12369719 -0.087397,1.5923884 L 4.5346628,1.5581041 4.7776961,0.95102492 c 0.011801,-0.037809 0.053329,-0.074779 0.092337,-0.081859 L 6.4269364,0.5794394 c 0.038852,-0.00732 0.070783,-0.045664 0.070783,-0.085259 l 1.926e-4,-1.6427308 c 9.94e-5,-0.039725 -0.031738,-0.077986 -0.070593,-0.085345 l 6.02e-4,8.4e-6 -1.5961285,-0.2968168 c -0.038852,-0.00753 -0.081361,-0.043813 -0.094471,-0.081257 L 4.4926922,-2.1826762 z",
          "location": [4.043, 0.311],
          "style": "fill"
        }
      ],
      "bottom":
      [
        {
          "type": "text",
          "value": "PCBmodE",
          "font": "Snickles-webfont",
          "style": "fill",
          "scale": 0.0012,
          "location": [3, -7.85]
        },
        {
          "type": "path",
          "value": "m 2.247334,1.284783 c -0.46748006,0.2013233 -0.75006866,0.5655414 -0.96676296,0.966803 l -2.8205717,-1.157385 0.2446287,-0.5707151 c 0.018243,-0.03527 0.014721,-0.090596 -0.0078,-0.1234129 l -0.9299727,-1.3554367 c -0.022277,-0.032602 -0.017882,-0.082247 0.010085,-0.1103075 l 1.1615333,-1.1615183 c 0.028087,-0.028018 0.077571,-0.032602 0.1102006,-0.010115 l 1.3792241,0.9464722 c 0.032604,0.022403 0.088545,0.026425 0.1239897,0.00904 l 0.5532368,-0.2264675 z",
          "location": [2.955, 3.275],
          "style": "fill"
        }
      ]
    },
    "soldermask":
    {
      "top":
      [
        {
          "type": "path",
          "value": "m -4.5273664,1.560638 0.243026,0.6070807 c 0.017258,0.035636 0.013429,0.091367 -0.00934,0.1239896 l -0.8843323,1.2887252 c -0.022335,0.032604 -0.017689,0.082333 0.010092,0.1104023 l 1.1617376,1.1615249 c 0.027963,0.02784 0.077577,0.032419 0.110297,0.010094 l 1.2659146,-0.8688901 c 0.032604,-0.022334 0.087284,-0.024068 0.1213598,-0.00433 l 0.5582891,0.298079 c 0.035326,0.018053 0.076617,0.00247 0.091762,-0.033841 l 1.15114319,-2.7814531 c 0.015148,-0.036626 0,-0.083301 -0.033841,-0.1039809 C -0.82439141,1.3291359 -0.89923732,1.2630474 -0.96934306,1.2148002 -1.2213492,1.0534305 -1.4309496,0.83159577 -1.5775486,0.56973417 z m 3.82922569,-3.5500934 c 0.4902379,-0.1998082 0.975441,-0.2005506 1.4142236,6e-7 L 1.8582772,-4.7824985 1.3050403,-5.0089659 c -0.037616,-0.012481 -0.074186,-0.054508 -0.08156,-0.093415 L 0.91617649,-6.7533242 c -0.007165,-0.038907 -0.0455349,-0.070799 -0.0851496,-0.070799 l -1.642832,0 c -0.039533,0 -0.077874,0.03187 -0.085055,0.070799 L -1.2040647,-5.102437 c -0.00742,0.038907 -0.043927,0.080977 -0.08156,0.093415 l -0.5532902,0.2264728 z M 1.5954468,0.56973767 C 1.4488589,0.83159927 1.2392571,1.0534343 0.98720113,1.2148037 c -0.068216,0.062926 -0.14937554,0.1029071 -0.22787824,0.153217 -0.033594,0.02066 -0.048937,0.067377 -0.033841,0.1039809 L 1.876533,4.2535484 c 0.015148,0.036626 0.056299,0.051722 0.091756,0.033841 L 2.5265779,3.9893091 c 0.034213,-0.019862 0.088743,-0.018249 0.1213727,0.00433 l 1.2660013,0.8689108 c 0.032604,0.022274 0.082335,0.017626 0.1102043,-0.010094 L 5.1858855,3.6909186 c 0.028027,-0.028087 0.032604,-0.077775 0.010094,-0.1103915 L 4.3115397,2.2918101 c -0.022334,-0.032604 -0.026542,-0.08836 -0.00917,-0.1239897 L 4.5454054,1.5607425 z",
          "style": "fill",
          "location": [0.905, 1.47]
        }
      ],
      "bottom":
      [
        {
          "type": "path",
          "value": "m -1.589374,0.56506297 c 0.1460153,0.2608387 0.3547982,0.48180713 0.60586946,0.64254603 0.067949,0.06268 0.1487922,0.102505 0.2269882,0.1526184 0.033462,0.02058 0.048746,0.067114 0.033709,0.1035746 L -1.869362,4.2344829 c -0.015089,0.036483 -0.056079,0.051519 -0.091397,0.033709 L -2.5168673,3.971276 c -0.03408,-0.019785 -0.088396,-0.018178 -0.1208986,0.00431 l -1.2610559,0.8655207 c -0.032476,0.022187 -0.082013,0.017557 -0.1097737,-0.010054 L -5.1657869,3.6740524 c -0.027917,-0.027977 -0.032476,-0.077471 -0.010054,-0.1099603 l 0.8809848,-1.2836829 c 0.022247,-0.032477 0.026439,-0.088015 0.00913,-0.1235053 L -4.527809,1.5521977 z M 4.5336588,1.5572548 4.2906328,2.1643354 c -0.017258,0.035636 -0.013429,0.091366 0.00934,0.1239896 l 0.8843323,1.2887252 c 0.022335,0.032604 0.017689,0.082333 -0.010093,0.1104023 L 4.0124769,4.8489774 c -0.027963,0.02784 -0.077577,0.032419 -0.110297,0.010094 L 2.6362652,3.9901813 c -0.032604,-0.022334 -0.087284,-0.024068 -0.1213598,-0.00433 l -0.5582891,0.298079 c -0.035326,0.018053 -0.076617,0.00247 -0.091762,-0.033841 L 0.71370916,1.46864 c -0.015148,-0.036626 0,-0.083301 0.033841,-0.1039809 0.083133,-0.038903 0.1579789,-0.1049912 0.2280847,-0.1532384 C 1.227641,1.050051 1.4372414,0.82821607 1.5838404,0.56635417 z M 1.5838416,0.56635327 C 1.8625236,0.01320125 1.839264,-0.4902115 1.6712596,-1.026037 l 2.8196699,-1.15741 0.2446778,0.5707177 c 0.012999,0.037486 0.055434,0.073983 0.094465,0.081257 l 1.596035,0.2968168 c 0.039038,0.00753 0.070783,0.045663 0.070783,0.085259 l -9.9e-5,1.64273224 c 0,0.039595 -0.031861,0.078179 -0.070783,0.085259 L 4.8691137,0.86831517 c -0.038915,0.00732 -0.080583,0.04405 -0.092429,0.081859 L 4.5336591,1.5572548 z M 0.70443296,-1.992839 c -0.4902379,-0.199808 -0.975441,-0.2005504 -1.4142236,6e-7 l -1.14219416,-2.7930434 0.5532369,-0.2264674 c 0.037616,-0.012481 0.074186,-0.054508 0.08156,-0.093415 l 0.30730366,-1.6509433 c 0.00716,-0.038907 0.045535,-0.070799 0.085149,-0.070799 l 1.6428321,0 c 0.039533,0 0.077874,0.03187 0.085055,0.070799 l 0.30720464,1.6508872 c 0.00742,0.038907 0.043927,0.080977 0.08156,0.093415 l 0.5532902,0.2264728 z m -2.38098656,0.9668026 c -0.1999588,0.5349113 -0.1691479,1.12369855 0.087399,1.59239027 L -4.5391113,1.5573601 -4.7821437,0.95028187 c -0.011816,-0.037809 -0.053329,-0.074779 -0.092337,-0.081859 L -6.431385,0.57869577 c -0.038853,-0.00731 -0.070783,-0.045664 -0.070783,-0.085259 l -1.918e-4,-1.64273247 c -9.9e-5,-0.039725 0.031739,-0.077986 0.070592,-0.085345 l -5.719e-4,8.4e-6 1.5961279,-0.2968164 c 0.038853,-0.00753 0.081362,-0.043813 0.094471,-0.081257 l 0.2446287,-0.5707144 z",
          "style": "fill",
          "location": [3.015, -0.015]
        }
      ]
    },
    "pours":
    {
      "bottom":
      [
      ],
      "top":
      [
      ]
    }
  }
}